Best proteins,AIC,BIC,auc,auc_lo,auc_hi
"DMTN,KATNAL1,PAPPA2",40.3303879537794,49.4370524298436,0.930555555555556,0.839082520691654,1
"DMTN,HBQ1,PAPPA2",40.4586817489079,49.5653462249721,0.916666666666667,0.815474057450679,1
"DMTN,PAPPA2,RAB6B",40.4967957075828,49.603460183647,0.936111111111111,0.868878587185457,1
"KATNAL1,LEP,PAPPA2",40.7822740685111,49.8889385445753,0.918055555555556,0.822858596009129,1
"LEP,PAPPA2,RAB6B",41.1226839362084,50.2293484122727,0.913888888888889,0.824743196610746,1
"HBQ1,LEP,PAPPA2",41.1972736445775,50.3039381206417,0.918055555555556,0.826294260098769,1
"LEP,LINC01521,PAPPA2",41.3757173200868,50.482381796151,0.916666666666667,0.831225734618139,1
"LEP,PAPPA2,POMGNT2",41.762799872278,50.8694643483423,0.933333333333333,0.859495022464568,1
"HBQ1,MAP1A,PAPPA2",41.797943493263,50.9046079693272,0.918055555555556,0.828722932313445,1
"ABAT,LEP,PAPPA2",41.8042455559279,50.9109100319921,0.918055555555556,0.822688912441505,1
"HBQ1,KATNAL1,PAPPA2",41.8296927679263,50.9363572439905,0.927777777777778,0.851361866153143,1
"LEP,PAPPA2,SYNM",41.8724388961495,50.9791033722138,0.918055555555556,0.828825753464334,1
"HBQ1,LMLN,PAPPA2",41.8948768755287,51.001541351593,0.915277777777778,0.825434338863488,1
"ADRA2A,HBQ1,PAPPA2",41.9116237720419,51.0182882481062,0.913888888888889,0.817923220199765,1
"HBQ1,NPRL3,PAPPA2",41.9123894214568,51.019053897521,0.911111111111111,0.815308344063174,1
"HBQ1,PAPPA2,RAB6B",41.9414611954959,51.0481256715601,0.930555555555556,0.858053622858005,1
"FADS2,HBQ1,PAPPA2",42.1056040744353,51.2122685504995,0.919444444444444,0.829562506506695,1
"HBQ1,LINC01521,PAPPA2",42.1196368658333,51.2263013418975,0.929166666666667,0.85325370733145,1
"ABAT,HBQ1,PAPPA2",42.1280453035824,51.2347097796466,0.926388888888889,0.848321964069589,1
"HBQ1,LY6G6D,PAPPA2",42.1368863287235,51.2435508047877,0.923611111111111,0.841075490326094,1
"HBQ1,PAPPA2,POMGNT2",42.1496287214831,51.2562931975473,0.925,0.845123627041082,1
"C1orf112,HBQ1,PAPPA2",42.1608052054051,51.2674696814693,0.923611111111111,0.841474873338729,1
"HBQ1,PAPPA2,SYNM",42.169268446284,51.2759329223482,0.922222222222222,0.838776505706213,1
"C1orf112,LEP,PAPPA2",42.3180108342964,51.4246753103607,0.908333333333333,0.806657147257806,1
"MAP1A,PAPPA2,RAB6B",42.3428604174759,51.4495248935402,0.918055555555556,0.828367805666371,1
"KATNAL1,MAP1A,PAPPA2",42.3565929572608,51.463257433325,0.926388888888889,0.85077190761314,1
"LEP,LY6G6D,PAPPA2",42.4311810625582,51.5378455386224,0.905555555555556,0.800761309196762,1
"LEP,NPRL3,PAPPA2",42.4717693238803,51.5784337999445,0.909722222222222,0.814005662104032,1
"LMLN,PAPPA2,RAB6B",42.5136886332975,51.6203531093618,0.922222222222222,0.846306405191202,0.998138039253243
"ADRA2A,LEP,PAPPA2",42.637927027335,51.7445915033992,0.915277777777778,0.820871385902693,1
"DMTN,PAPPA2,SYNM",42.6710518738043,51.7777163498685,0.926388888888889,0.853908219672514,0.998869558105264
"LEP,MAP1A,PAPPA2",42.6801113723627,51.7867758484269,0.906944444444444,0.800711725665512,1
"LEP,LMLN,PAPPA2",42.6870906300256,51.7937551060899,0.906944444444444,0.803581514867253,1
"FADS2,PAPPA2,RAB6B",42.9373042580252,52.0439687340894,0.930555555555556,0.863846780613655,0.997264330497456
"FADS2,LEP,PAPPA2",42.9400519705835,52.0467164466477,0.906944444444444,0.805332849524941,1
"PAPPA2,RAB6B,SYNM",42.95079673716,52.0574612132242,0.922222222222222,0.85021331647671,0.994231127967735
"KATNAL1,LMLN,PAPPA2",43.0360884012612,52.1427528773254,0.919444444444444,0.842608329605269,0.99628055928362
"KATNAL1,PAPPA2,RAB6B",43.1126385802062,52.2193030562704,0.922222222222222,0.854496292877047,0.989948151567398
"ADRA2A,PAPPA2,RAB6B",43.1204286877095,52.2270931637737,0.923611111111111,0.850917144558167,0.996305077664055
"NPRL3,PAPPA2,RAB6B",43.1438122045968,52.2504766806611,0.922222222222222,0.851588822213339,0.992855622231106
"FADS2,KATNAL1,PAPPA2",43.1917620049036,52.2984264809678,0.911111111111111,0.818959064747033,1
"DMTN,LEP,PAPPA2",43.2090924901131,52.3157569661773,0.905555555555556,0.79786986106867,1
"DMTN,LY6G6D,PAPPA2",43.226170524089,52.3328350001532,0.9,0.796814960450609,1
"KATNAL1,PAPPA2,SYNM",43.2366088204368,52.3432732965011,0.922222222222222,0.849202441138398,0.995242003306047
"DMTN,LEP,LINC01521",43.2440591615076,52.3507236375718,0.893055555555556,0.756208133966305,1
"ABAT,PAPPA2,RAB6B",43.2686274300804,52.3752919061446,0.922222222222222,0.84928317129785,0.995161273146594
"LY6G6D,PAPPA2,RAB6B",43.2793328392126,52.3859973152768,0.918055555555556,0.843896765539438,0.992214345571673
"LINC01521,PAPPA2,RAB6B",43.2908351701722,52.3974996462364,0.919444444444444,0.845830384007862,0.993058504881027
"C1orf112,PAPPA2,RAB6B",43.3051120131526,52.4117764892168,0.922222222222222,0.85077683240056,0.993667612043885
"PAPPA2,POMGNT2,RAB6B",43.3082744833932,52.4149389594574,0.922222222222222,0.850318043833646,0.994126400610798
"KATNAL1,LINC01521,PAPPA2",43.4444762402104,52.5511407162746,0.922222222222222,0.854871602331751,0.989572842112693
"KATNAL1,NPRL3,PAPPA2",43.4462215966317,52.5528860726959,0.9125,0.826535087832679,0.998464912167321
"LEP,LINC01521,POMGNT2",43.4535784862622,52.5602429623264,0.904166666666667,0.797710194930277,1
"MAP1A,PAPPA2,SYNM",43.4646374195289,52.5713018955932,0.926388888888889,0.855876345011165,0.996901432766613
"KATNAL1,LEP,LINC01521",43.465161871249,52.5718263473132,0.890277777777778,0.763707335836332,1
"LINC01521,PAPPA2,SYNM",43.4723029356738,52.578967411738,0.920833333333333,0.843178774915327,0.998487891751339
"LY6G6D,PAPPA2,SYNM",43.4835451442504,52.5902096203146,0.918055555555556,0.839375003973025,0.996736107138087
"LEP,LMLN,RAB6B",43.5066218898443,52.6132863659085,0.894444444444444,0.738139566700243,1
"KATNAL1,LY6G6D,PAPPA2",43.5197105860947,52.6263750621589,0.919444444444444,0.843211639736346,0.995677249152543
"ADRA2A,KATNAL1,PAPPA2",43.5843885005093,52.6910529765735,0.916666666666667,0.838522701931873,0.99481063140146
"FADS2,PAPPA2,SYNM",43.6101325055693,52.7167969816335,0.919444444444444,0.842760052200793,0.996128836688096
"LEP,LINC01521,RAB6B",43.6377815845901,52.7444460606543,0.898611111111111,0.769459206476365,1
"LEP,LINC01521,LMLN",43.637987244442,52.7446517205063,0.893055555555556,0.75639749625959,1
"C1orf112,PAPPA2,SYNM",43.6652397921766,52.7719042682408,0.920833333333333,0.845777118752558,0.995889547914109
"ABAT,PAPPA2,SYNM",43.6680162204105,52.7746806964747,0.916666666666667,0.83780014939799,0.995533183935344
"HBQ1,LEP,LINC01521",43.6819694123168,52.7886338883811,0.897222222222222,0.777334973612806,1
"ABAT,KATNAL1,PAPPA2",43.6822015565272,52.7888660325914,0.918055555555556,0.840092250117914,0.996018860993197
"KATNAL1,PAPPA2,POMGNT2",43.6842854098089,52.7909498858731,0.918055555555556,0.839864118275825,0.996246992835286
"ADRA2A,LEP,LINC01521",43.6858275222504,52.7924919983146,0.8875,0.747552200202756,1
"ABAT,DMTN,PAPPA2",43.6923383442353,52.7990028202995,0.918055555555556,0.839155891757863,0.996955219353248
"C1orf112,KATNAL1,PAPPA2",43.6984943611996,52.8051588372638,0.922222222222222,0.848578387652324,0.995866056792121
"PAPPA2,POMGNT2,SYNM",43.7303665556042,52.8370310316684,0.926388888888889,0.856444080766623,0.996333697011155
"ABAT,LEP,LINC01521",43.7659471001622,52.8726115762264,0.9,0.777328306443157,1
"LMLN,PAPPA2,SYNM",43.7696152083121,52.8762796843763,0.922222222222222,0.849758095582671,0.994686348861774
"KATNAL1,LEP,POMGNT2",43.7725239795537,52.879188455618,0.905555555555556,0.799855230179938,1
"ADRA2A,PAPPA2,SYNM",43.7902837427903,52.8969482188545,0.920833333333333,0.847235250442764,0.994431416223903
"FADS2,LEP,LINC01521",43.7960064847267,52.902670960791,0.890277777777778,0.758492038356601,1
"LEP,POMGNT2,RAB6B",43.7970096934368,52.9036741695011,0.9,0.782118494879934,1
"NPRL3,PAPPA2,SYNM",43.8017441621829,52.9084086382471,0.925,0.852689821631893,0.997310178368107
"HBQ1,LEP,POMGNT2",43.8421392999088,52.948803775973,0.902777777777778,0.795341755123829,1
"LEP,LINC01521,SYNM",43.8435204835564,52.9501849596206,0.891666666666667,0.764222490475864,1
"KATNAL1,LEP,LMLN",43.8554564151463,52.9621208912106,0.879166666666667,0.735944100763377,1
"LEP,LINC01521,LY6G6D",43.8625788755287,52.9692433515929,0.888888888888889,0.756631718443052,1
"C1orf112,LEP,LINC01521",43.8647198005489,52.9713842766131,0.890277777777778,0.761512613089175,1
"LEP,LINC01521,NPRL3",43.8716705960501,52.9783350721143,0.893055555555556,0.768327986530656,1
"LEP,LINC01521,MAP1A",43.8742948253647,52.9809593014289,0.890277777777778,0.760432855023248,1
"DMTN,LEP,RAB6B",43.9377578279004,53.0444223039646,0.891666666666667,0.740388619534475,1
"FADS2,LY6G6D,PAPPA2",43.9522126875373,53.0588771636015,0.902777777777778,0.801258928907615,1
"HBQ1,KATNAL1,LEP",43.9592496100846,53.0659140861488,0.8875,0.756668327348713,1
"KATNAL1,LEP,RAB6B",44.0017550167446,53.1084194928089,0.888888888888889,0.761942019537985,1
"DMTN,KATNAL1,LEP",44.0542618562643,53.1609263323285,0.870833333333333,0.718419480591849,1
"LINC01521,LY6G6D,PAPPA2",44.0959718768427,53.202636352907,0.909722222222222,0.824478629827461,0.994965814616983
"ADRA2A,LEP,RAB6B",44.1151839018359,53.2218483779002,0.884722222222222,0.727102080263561,1
"ABAT,LEP,RAB6B",44.1543508363794,53.2610153124436,0.886111111111111,0.747158045763449,1
"HBQ1,LEP,RAB6B",44.1580765052609,53.2647409813251,0.884722222222222,0.747203624222049,1
"ABAT,HBQ1,LEP",44.1746621182891,53.2813265943533,0.883333333333333,0.7457968854519,1
"ABAT,LEP,POMGNT2",44.1809575006185,53.2876219766828,0.902777777777778,0.796796537725852,1
"KATNAL1,LEP,SYNM",44.1934256854805,53.3000901615447,0.876388888888889,0.732704682719954,1
"ABAT,KATNAL1,LEP",44.1951762398211,53.3018407158854,0.886111111111111,0.753998019415508,1
"ADRA2A,KATNAL1,LEP",44.221127073992,53.3277915500562,0.870833333333333,0.721113214066456,1
